[
    {
        "id": 1,
        "nom": "Inception",
        "description": "Un thriller de science-fiction sur les rêves.",
        "date": "2010-07-16",
        "note": 5
    },
    {
        "id": 2,
        "nom": "Forrest Gump",
        "description": "L'histoire d'un homme avec un QI inférieur à la moyenne qui réussit dans la vie.",
        "date": "1994-07-06",
        "note": 4
    },
    {
        "id": 4,
        "nom": "Pulp Fiction",
        "description": "Une série d''histoires interconnectées dans le monde du crime.",
        "date": "1994-05-21",
        "note": 4
    },
    {
        "id": 5,
        "nom": "La La Land",
        "description": "Une romance musicale sur deux aspirants artistes à Los Angeles.",
        "date": "2016-08-31",
        "note": 3
    },
    {
        "id": 6,
        "nom": "test1",
        "description": "des1",
        "date": "2023-11-12T00:00:00.000Z",
        "note": "5"
    }
]